…
- `IQR`
- `quantile`
- `confint`
- `range`
- `fivenum` (didn't know about this one!)

What’s missing in the following data frame? How does quantile() return that missing piece? Why isn’t that helpful here?

```{r}
mtcars %>% 
  group_by(cyl) %>% 
  summarise(q = list(quantile(mpg))) %>% 
  unnest()
#> # A tibble: 15 × 2
#>     cyl     q
#>   <dbl> <dbl>
#> 1     4  21.4
#> 2     4  22.8
#> 3     4  26.0
#> 4     4  30.4
#> 5     4  33.9
#> 6     6  17.8
#> # ... with 9 more rows
```
…
