Ch5
…
Tearing out the effect is not straight forward but we can make some informed guesses. For example, whenever there are substantial deviations, they seem to be higher in EWR airport rather than in other airports. On the other hand, there are some aielines that look particular bad like 9E and MQ. And the same pattern is not found on the vast majority of other airlines, which would suggest its an airport issues rather than an airline issue.

flights %>%
  group_by(carrier, dest) %>%
  summarise(mean_departure = mean(dep_delay, na.rm = T),
            mean_arrival = mean(arr_delay, na.rm = T))

## Source: local data frame [314 x 4]
## Groups: carrier [?]
## 
##    carrier  dest mean_departure mean_arrival
##      <chr> <chr>          <dbl>        <dbl>
## 1       9E   ATL      0.9649123    0.8571429
## 2       9E   AUS     19.0000000   -3.5000000
## 3       9E   AVL     -2.6000000  -12.1000000
## 4       9E   BGR     34.0000000          NaN
## 5       9E   BNA     19.0925110    9.2853982
## 6       9E   BOS     14.7569767    5.6647128
## 7       9E   BTV     -4.5000000   -2.5000000
## 8       9E   BUF     15.5081967    6.7072243
## 9       9E   BWI     17.4658537    8.7312883
## 10      9E   CAE     -3.6666667    6.0000000
## # ... with 304 more rows
…
flights %>%
  filter(!is.na(dep_delay)) %>%
  group_by(tailnum, dest) %>%
  summarise(m = mean(dep_delay > 0), n = n()) %>%
  arrange(desc(m))

## Source: local data frame [44,218 x 4]
## Groups: tailnum [4,037]
## 
##    tailnum  dest     m     n
##      <chr> <chr> <dbl> <int>
## 1   D942DN   MCO     1     2
## 2   N10156   BDL     1     1
## 3   N10156   CLE     1     1
## 4   N10156   DCA     1     2
## 5   N10156   GSO     1     1
## 6   N10156   GSP     1     1
## 7   N10156   IAD     1     1
## 8   N10156   IND     1     2
## 9   N10156   MHT     1     1
## 10  N10156   MSN     1     1
## # ... with 44,208 more rows
…
